^C:\USERS\820\DESKTOP\MYENGINE 12\PRUEBA\STDAFX.CPP
/c /I..\Engine /ZI /nologo /W3 /WX- /sdl /Od /Oy- /D WIN32 /D _DEBUG /D _WINDOWS /D _UNICODE /D UNICODE /Gm /EHsc /RTC1 /MDd /GS /fp:precise /Zc:wchar_t /Zc:forScope /Yc"stdafx.h" /Fp"DEBUG\PRUEBA.PCH" /Fo"DEBUG\\" /Fd"DEBUG\VC120.PDB" /Gd /TP /analyze- C:\USERS\820\DESKTOP\MYENGINE 12\PRUEBA\STDAFX.CPP
^C:\USERS\820\DESKTOP\MYENGINE 12\PRUEBA\MATERIAL1.CPP
/c /I..\Engine /ZI /nologo /W3 /WX- /sdl /Od /Oy- /D WIN32 /D _DEBUG /D _WINDOWS /D _UNICODE /D UNICODE /Gm /EHsc /RTC1 /MDd /GS /fp:precise /Zc:wchar_t /Zc:forScope /Yu"stdafx.h" /Fp"DEBUG\PRUEBA.PCH" /Fo"DEBUG\\" /Fd"DEBUG\VC120.PDB" /Gd /TP /analyze- C:\USERS\820\DESKTOP\MYENGINE 12\PRUEBA\MATERIAL1.CPP
^C:\USERS\820\DESKTOP\MYENGINE 12\PRUEBA\MATERIAL2.CPP
/c /I..\Engine /ZI /nologo /W3 /WX- /sdl /Od /Oy- /D WIN32 /D _DEBUG /D _WINDOWS /D _UNICODE /D UNICODE /Gm /EHsc /RTC1 /MDd /GS /fp:precise /Zc:wchar_t /Zc:forScope /Yu"stdafx.h" /Fp"DEBUG\PRUEBA.PCH" /Fo"DEBUG\\" /Fd"DEBUG\VC120.PDB" /Gd /TP /analyze- C:\USERS\820\DESKTOP\MYENGINE 12\PRUEBA\MATERIAL2.CPP
^C:\USERS\820\DESKTOP\MYENGINE 12\PRUEBA\MIJUEGO.CPP
/c /I..\Engine /ZI /nologo /W3 /WX- /sdl /Od /Oy- /D WIN32 /D _DEBUG /D _WINDOWS /D _UNICODE /D UNICODE /Gm /EHsc /RTC1 /MDd /GS /fp:precise /Zc:wchar_t /Zc:forScope /Yu"stdafx.h" /Fp"DEBUG\PRUEBA.PCH" /Fo"DEBUG\\" /Fd"DEBUG\VC120.PDB" /Gd /TP /analyze- C:\USERS\820\DESKTOP\MYENGINE 12\PRUEBA\MIJUEGO.CPP
^C:\USERS\820\DESKTOP\MYENGINE 12\PRUEBA\PRUEBA.CPP
/c /I..\Engine /ZI /nologo /W3 /WX- /sdl /Od /Oy- /D WIN32 /D _DEBUG /D _WINDOWS /D _UNICODE /D UNICODE /Gm /EHsc /RTC1 /MDd /GS /fp:precise /Zc:wchar_t /Zc:forScope /Yu"stdafx.h" /Fp"DEBUG\PRUEBA.PCH" /Fo"DEBUG\\" /Fd"DEBUG\VC120.PDB" /Gd /TP /analyze- C:\USERS\820\DESKTOP\MYENGINE 12\PRUEBA\PRUEBA.CPP
^C:\USERS\820\DESKTOP\MYENGINE 12\PRUEBA\MATERIALTRANSPARENCIA.CPP
/c /I..\Engine /ZI /nologo /W3 /WX- /sdl /Od /Oy- /D WIN32 /D _DEBUG /D _WINDOWS /D _UNICODE /D UNICODE /Gm /EHsc /RTC1 /MDd /GS /fp:precise /Zc:wchar_t /Zc:forScope /Yu"stdafx.h" /Fp"DEBUG\PRUEBA.PCH" /Fo"DEBUG\\" /Fd"DEBUG\VC120.PDB" /Gd /TP /analyze- C:\USERS\820\DESKTOP\MYENGINE 12\PRUEBA\MATERIALTRANSPARENCIA.CPP
^C:\USERS\ABELLAMAC\DESKTOP\MYENGINE 13\PRUEBA\STDAFX.CPP
/c /I..\ENGINE /ZI /nologo /W3 /WX- /sdl /Od /Oy- /D WIN32 /D _DEBUG /D _WINDOWS /D _UNICODE /D UNICODE /Gm /EHsc /RTC1 /MDd /GS /fp:precise /Zc:wchar_t /Zc:forScope /Zc:inline /Yc"stdafx.h" /Fp"DEBUG\PRUEBA.PCH" /Fo"DEBUG\\" /Fd"DEBUG\VC140.PDB" /Gd /TP /analyze- C:\USERS\ABELLAMAC\DESKTOP\MYENGINE 13\PRUEBA\STDAFX.CPP
^C:\USERS\ABELLAMAC\DESKTOP\MYENGINE 13\PRUEBA\MATERIAL1.CPP
/c /I..\ENGINE /ZI /nologo /W3 /WX- /sdl /Od /Oy- /D WIN32 /D _DEBUG /D _WINDOWS /D _UNICODE /D UNICODE /Gm /EHsc /RTC1 /MDd /GS /fp:precise /Zc:wchar_t /Zc:forScope /Zc:inline /Yu"stdafx.h" /Fp"DEBUG\PRUEBA.PCH" /Fo"DEBUG\\" /Fd"DEBUG\VC140.PDB" /Gd /TP /analyze- C:\USERS\ABELLAMAC\DESKTOP\MYENGINE 13\PRUEBA\MATERIAL1.CPP
^C:\USERS\ABELLAMAC\DESKTOP\MYENGINE 13\PRUEBA\MATERIAL2.CPP
/c /I..\ENGINE /ZI /nologo /W3 /WX- /sdl /Od /Oy- /D WIN32 /D _DEBUG /D _WINDOWS /D _UNICODE /D UNICODE /Gm /EHsc /RTC1 /MDd /GS /fp:precise /Zc:wchar_t /Zc:forScope /Zc:inline /Yu"stdafx.h" /Fp"DEBUG\PRUEBA.PCH" /Fo"DEBUG\\" /Fd"DEBUG\VC140.PDB" /Gd /TP /analyze- C:\USERS\ABELLAMAC\DESKTOP\MYENGINE 13\PRUEBA\MATERIAL2.CPP
^C:\USERS\ABELLAMAC\DESKTOP\MYENGINE 13\PRUEBA\MATERIALTRANSPARENCIA.CPP
/c /I..\ENGINE /ZI /nologo /W3 /WX- /sdl /Od /Oy- /D WIN32 /D _DEBUG /D _WINDOWS /D _UNICODE /D UNICODE /Gm /EHsc /RTC1 /MDd /GS /fp:precise /Zc:wchar_t /Zc:forScope /Zc:inline /Yu"stdafx.h" /Fp"DEBUG\PRUEBA.PCH" /Fo"DEBUG\\" /Fd"DEBUG\VC140.PDB" /Gd /TP /analyze- C:\USERS\ABELLAMAC\DESKTOP\MYENGINE 13\PRUEBA\MATERIALTRANSPARENCIA.CPP
^C:\USERS\ABELLAMAC\DESKTOP\MYENGINE 13\PRUEBA\MIJUEGO.CPP
/c /I..\ENGINE /ZI /nologo /W3 /WX- /sdl /Od /Oy- /D WIN32 /D _DEBUG /D _WINDOWS /D _UNICODE /D UNICODE /Gm /EHsc /RTC1 /MDd /GS /fp:precise /Zc:wchar_t /Zc:forScope /Zc:inline /Yu"stdafx.h" /Fp"DEBUG\PRUEBA.PCH" /Fo"DEBUG\\" /Fd"DEBUG\VC140.PDB" /Gd /TP /analyze- C:\USERS\ABELLAMAC\DESKTOP\MYENGINE 13\PRUEBA\MIJUEGO.CPP
^C:\USERS\ABELLAMAC\DESKTOP\MYENGINE 13\PRUEBA\PRUEBA.CPP
/c /I..\ENGINE /ZI /nologo /W3 /WX- /sdl /Od /Oy- /D WIN32 /D _DEBUG /D _WINDOWS /D _UNICODE /D UNICODE /Gm /EHsc /RTC1 /MDd /GS /fp:precise /Zc:wchar_t /Zc:forScope /Zc:inline /Yu"stdafx.h" /Fp"DEBUG\PRUEBA.PCH" /Fo"DEBUG\\" /Fd"DEBUG\VC140.PDB" /Gd /TP /analyze- C:\USERS\ABELLAMAC\DESKTOP\MYENGINE 13\PRUEBA\PRUEBA.CPP
^C:\USERS\ABELLAMAC\DESKTOP\MYENGINE 13\PRUEBA\MATERIALANIMACION.CPP
/c /I..\ENGINE /ZI /nologo /W3 /WX- /sdl /Od /Oy- /D WIN32 /D _DEBUG /D _WINDOWS /D _UNICODE /D UNICODE /Gm /EHsc /RTC1 /MDd /GS /fp:precise /Zc:wchar_t /Zc:forScope /Zc:inline /Yu"stdafx.h" /Fp"DEBUG\PRUEBA.PCH" /Fo"DEBUG\\" /Fd"DEBUG\VC140.PDB" /Gd /TP /analyze- C:\USERS\ABELLAMAC\DESKTOP\MYENGINE 13\PRUEBA\MATERIALANIMACION.CPP
^C:\USERS\FEDE\DESKTOP\MYENGINE 14\PRUEBA\STDAFX.CPP
/c /I..\ENGINE /ZI /nologo /W3 /WX- /sdl /Od /Oy- /D WIN32 /D _DEBUG /D _WINDOWS /D _UNICODE /D UNICODE /Gm /EHsc /RTC1 /MDd /GS /fp:precise /Zc:wchar_t /Zc:forScope /Zc:inline /Yc"stdafx.h" /Fp"DEBUG\PRUEBA.PCH" /Fo"DEBUG\\" /Fd"DEBUG\VC140.PDB" /Gd /TP /analyze- C:\USERS\FEDE\DESKTOP\MYENGINE 14\PRUEBA\STDAFX.CPP
^C:\USERS\FEDE\DESKTOP\MYENGINE 14\PRUEBA\MATERIAL1.CPP
/c /I..\ENGINE /ZI /nologo /W3 /WX- /sdl /Od /Oy- /D WIN32 /D _DEBUG /D _WINDOWS /D _UNICODE /D UNICODE /Gm /EHsc /RTC1 /MDd /GS /fp:precise /Zc:wchar_t /Zc:forScope /Zc:inline /Yu"stdafx.h" /Fp"DEBUG\PRUEBA.PCH" /Fo"DEBUG\\" /Fd"DEBUG\VC140.PDB" /Gd /TP /analyze- C:\USERS\FEDE\DESKTOP\MYENGINE 14\PRUEBA\MATERIAL1.CPP
^C:\USERS\FEDE\DESKTOP\MYENGINE 14\PRUEBA\MATERIAL2.CPP
/c /I..\ENGINE /ZI /nologo /W3 /WX- /sdl /Od /Oy- /D WIN32 /D _DEBUG /D _WINDOWS /D _UNICODE /D UNICODE /Gm /EHsc /RTC1 /MDd /GS /fp:precise /Zc:wchar_t /Zc:forScope /Zc:inline /Yu"stdafx.h" /Fp"DEBUG\PRUEBA.PCH" /Fo"DEBUG\\" /Fd"DEBUG\VC140.PDB" /Gd /TP /analyze- C:\USERS\FEDE\DESKTOP\MYENGINE 14\PRUEBA\MATERIAL2.CPP
^C:\USERS\FEDE\DESKTOP\MYENGINE 14\PRUEBA\MATERIALANIMACION.CPP
/c /I..\ENGINE /ZI /nologo /W3 /WX- /sdl /Od /Oy- /D WIN32 /D _DEBUG /D _WINDOWS /D _UNICODE /D UNICODE /Gm /EHsc /RTC1 /MDd /GS /fp:precise /Zc:wchar_t /Zc:forScope /Zc:inline /Yu"stdafx.h" /Fp"DEBUG\PRUEBA.PCH" /Fo"DEBUG\\" /Fd"DEBUG\VC140.PDB" /Gd /TP /analyze- C:\USERS\FEDE\DESKTOP\MYENGINE 14\PRUEBA\MATERIALANIMACION.CPP
^C:\USERS\FEDE\DESKTOP\MYENGINE 14\PRUEBA\MATERIALTRANSPARENCIA.CPP
/c /I..\ENGINE /ZI /nologo /W3 /WX- /sdl /Od /Oy- /D WIN32 /D _DEBUG /D _WINDOWS /D _UNICODE /D UNICODE /Gm /EHsc /RTC1 /MDd /GS /fp:precise /Zc:wchar_t /Zc:forScope /Zc:inline /Yu"stdafx.h" /Fp"DEBUG\PRUEBA.PCH" /Fo"DEBUG\\" /Fd"DEBUG\VC140.PDB" /Gd /TP /analyze- C:\USERS\FEDE\DESKTOP\MYENGINE 14\PRUEBA\MATERIALTRANSPARENCIA.CPP
^C:\USERS\FEDE\DESKTOP\MYENGINE 14\PRUEBA\MIJUEGO.CPP
/c /I..\ENGINE /ZI /nologo /W3 /WX- /sdl /Od /Oy- /D WIN32 /D _DEBUG /D _WINDOWS /D _UNICODE /D UNICODE /Gm /EHsc /RTC1 /MDd /GS /fp:precise /Zc:wchar_t /Zc:forScope /Zc:inline /Yu"stdafx.h" /Fp"DEBUG\PRUEBA.PCH" /Fo"DEBUG\\" /Fd"DEBUG\VC140.PDB" /Gd /TP /analyze- C:\USERS\FEDE\DESKTOP\MYENGINE 14\PRUEBA\MIJUEGO.CPP
^C:\USERS\FEDE\DESKTOP\MYENGINE 14\PRUEBA\PRUEBA.CPP
/c /I..\ENGINE /ZI /nologo /W3 /WX- /sdl /Od /Oy- /D WIN32 /D _DEBUG /D _WINDOWS /D _UNICODE /D UNICODE /Gm /EHsc /RTC1 /MDd /GS /fp:precise /Zc:wchar_t /Zc:forScope /Zc:inline /Yu"stdafx.h" /Fp"DEBUG\PRUEBA.PCH" /Fo"DEBUG\\" /Fd"DEBUG\VC140.PDB" /Gd /TP /analyze- C:\USERS\FEDE\DESKTOP\MYENGINE 14\PRUEBA\PRUEBA.CPP
^C:\USERS\FEDE\DESKTOP\MYENGINE 14\PRUEBA\CORRERBRAID.CPP
/c /I..\ENGINE /ZI /nologo /W3 /WX- /sdl /Od /Oy- /D WIN32 /D _DEBUG /D _WINDOWS /D _UNICODE /D UNICODE /Gm /EHsc /RTC1 /MDd /GS /fp:precise /Zc:wchar_t /Zc:forScope /Zc:inline /Yu"stdafx.h" /Fp"DEBUG\PRUEBA.PCH" /Fo"DEBUG\\" /Fd"DEBUG\VC140.PDB" /Gd /TP /analyze- C:\USERS\FEDE\DESKTOP\MYENGINE 14\PRUEBA\CORRERBRAID.CPP
^C:\USERS\826\DESKTOP\MYENGINE 15\PRUEBA\STDAFX.CPP
/c /I..\Engine /ZI /nologo /W3 /WX- /sdl /Od /Oy- /D WIN32 /D _DEBUG /D _WINDOWS /D _UNICODE /D UNICODE /Gm /EHsc /RTC1 /MDd /GS /fp:precise /Zc:wchar_t /Zc:forScope /Yc"stdafx.h" /Fp"DEBUG\PRUEBA.PCH" /Fo"DEBUG\\" /Fd"DEBUG\VC120.PDB" /Gd /TP /analyze- C:\USERS\826\DESKTOP\MYENGINE 15\PRUEBA\STDAFX.CPP
^C:\USERS\826\DESKTOP\MYENGINE 15\PRUEBA\CORRERBRAID.CPP
/c /I..\Engine /ZI /nologo /W3 /WX- /sdl /Od /Oy- /D WIN32 /D _DEBUG /D _WINDOWS /D _UNICODE /D UNICODE /Gm /EHsc /RTC1 /MDd /GS /fp:precise /Zc:wchar_t /Zc:forScope /Yu"stdafx.h" /Fp"DEBUG\PRUEBA.PCH" /Fo"DEBUG\\" /Fd"DEBUG\VC120.PDB" /Gd /TP /analyze- C:\USERS\826\DESKTOP\MYENGINE 15\PRUEBA\CORRERBRAID.CPP
^C:\USERS\826\DESKTOP\MYENGINE 15\PRUEBA\MATERIAL1.CPP
/c /I..\Engine /ZI /nologo /W3 /WX- /sdl /Od /Oy- /D WIN32 /D _DEBUG /D _WINDOWS /D _UNICODE /D UNICODE /Gm /EHsc /RTC1 /MDd /GS /fp:precise /Zc:wchar_t /Zc:forScope /Yu"stdafx.h" /Fp"DEBUG\PRUEBA.PCH" /Fo"DEBUG\\" /Fd"DEBUG\VC120.PDB" /Gd /TP /analyze- C:\USERS\826\DESKTOP\MYENGINE 15\PRUEBA\MATERIAL1.CPP
^C:\USERS\826\DESKTOP\MYENGINE 15\PRUEBA\MATERIAL2.CPP
/c /I..\Engine /ZI /nologo /W3 /WX- /sdl /Od /Oy- /D WIN32 /D _DEBUG /D _WINDOWS /D _UNICODE /D UNICODE /Gm /EHsc /RTC1 /MDd /GS /fp:precise /Zc:wchar_t /Zc:forScope /Yu"stdafx.h" /Fp"DEBUG\PRUEBA.PCH" /Fo"DEBUG\\" /Fd"DEBUG\VC120.PDB" /Gd /TP /analyze- C:\USERS\826\DESKTOP\MYENGINE 15\PRUEBA\MATERIAL2.CPP
^C:\USERS\826\DESKTOP\MYENGINE 15\PRUEBA\MATERIALANIMACION.CPP
/c /I..\Engine /ZI /nologo /W3 /WX- /sdl /Od /Oy- /D WIN32 /D _DEBUG /D _WINDOWS /D _UNICODE /D UNICODE /Gm /EHsc /RTC1 /MDd /GS /fp:precise /Zc:wchar_t /Zc:forScope /Yu"stdafx.h" /Fp"DEBUG\PRUEBA.PCH" /Fo"DEBUG\\" /Fd"DEBUG\VC120.PDB" /Gd /TP /analyze- C:\USERS\826\DESKTOP\MYENGINE 15\PRUEBA\MATERIALANIMACION.CPP
^C:\USERS\826\DESKTOP\MYENGINE 15\PRUEBA\MATERIALTRANSPARENCIA.CPP
/c /I..\Engine /ZI /nologo /W3 /WX- /sdl /Od /Oy- /D WIN32 /D _DEBUG /D _WINDOWS /D _UNICODE /D UNICODE /Gm /EHsc /RTC1 /MDd /GS /fp:precise /Zc:wchar_t /Zc:forScope /Yu"stdafx.h" /Fp"DEBUG\PRUEBA.PCH" /Fo"DEBUG\\" /Fd"DEBUG\VC120.PDB" /Gd /TP /analyze- C:\USERS\826\DESKTOP\MYENGINE 15\PRUEBA\MATERIALTRANSPARENCIA.CPP
^C:\USERS\826\DESKTOP\MYENGINE 15\PRUEBA\MIJUEGO.CPP
/c /I..\Engine /ZI /nologo /W3 /WX- /sdl /Od /Oy- /D WIN32 /D _DEBUG /D _WINDOWS /D _UNICODE /D UNICODE /Gm /EHsc /RTC1 /MDd /GS /fp:precise /Zc:wchar_t /Zc:forScope /Yu"stdafx.h" /Fp"DEBUG\PRUEBA.PCH" /Fo"DEBUG\\" /Fd"DEBUG\VC120.PDB" /Gd /TP /analyze- C:\USERS\826\DESKTOP\MYENGINE 15\PRUEBA\MIJUEGO.CPP
^C:\USERS\826\DESKTOP\MYENGINE 15\PRUEBA\PRUEBA.CPP
/c /I..\Engine /ZI /nologo /W3 /WX- /sdl /Od /Oy- /D WIN32 /D _DEBUG /D _WINDOWS /D _UNICODE /D UNICODE /Gm /EHsc /RTC1 /MDd /GS /fp:precise /Zc:wchar_t /Zc:forScope /Yu"stdafx.h" /Fp"DEBUG\PRUEBA.PCH" /Fo"DEBUG\\" /Fd"DEBUG\VC120.PDB" /Gd /TP /analyze- C:\USERS\826\DESKTOP\MYENGINE 15\PRUEBA\PRUEBA.CPP
^C:\USERS\FEDE\DESKTOP\MYENGINE 16\PRUEBA\STDAFX.CPP
/c /I..\ENGINE /ZI /nologo /W3 /WX- /sdl /Od /Oy- /D WIN32 /D _DEBUG /D _WINDOWS /D _UNICODE /D UNICODE /Gm /EHsc /RTC1 /MDd /GS /fp:precise /Zc:wchar_t /Zc:forScope /Zc:inline /Yc"stdafx.h" /Fp"DEBUG\PRUEBA.PCH" /Fo"DEBUG\\" /Fd"DEBUG\VC140.PDB" /Gd /TP /analyze- C:\USERS\FEDE\DESKTOP\MYENGINE 16\PRUEBA\STDAFX.CPP
^C:\USERS\FEDE\DESKTOP\MYENGINE 16\PRUEBA\CORRERBRAID.CPP
/c /I..\ENGINE /ZI /nologo /W3 /WX- /sdl /Od /Oy- /D WIN32 /D _DEBUG /D _WINDOWS /D _UNICODE /D UNICODE /Gm /EHsc /RTC1 /MDd /GS /fp:precise /Zc:wchar_t /Zc:forScope /Zc:inline /Yu"stdafx.h" /Fp"DEBUG\PRUEBA.PCH" /Fo"DEBUG\\" /Fd"DEBUG\VC140.PDB" /Gd /TP /analyze- C:\USERS\FEDE\DESKTOP\MYENGINE 16\PRUEBA\CORRERBRAID.CPP
^C:\USERS\FEDE\DESKTOP\MYENGINE 16\PRUEBA\MATERIAL1.CPP
/c /I..\ENGINE /ZI /nologo /W3 /WX- /sdl /Od /Oy- /D WIN32 /D _DEBUG /D _WINDOWS /D _UNICODE /D UNICODE /Gm /EHsc /RTC1 /MDd /GS /fp:precise /Zc:wchar_t /Zc:forScope /Zc:inline /Yu"stdafx.h" /Fp"DEBUG\PRUEBA.PCH" /Fo"DEBUG\\" /Fd"DEBUG\VC140.PDB" /Gd /TP /analyze- C:\USERS\FEDE\DESKTOP\MYENGINE 16\PRUEBA\MATERIAL1.CPP
^C:\USERS\FEDE\DESKTOP\MYENGINE 16\PRUEBA\MATERIAL2.CPP
/c /I..\ENGINE /ZI /nologo /W3 /WX- /sdl /Od /Oy- /D WIN32 /D _DEBUG /D _WINDOWS /D _UNICODE /D UNICODE /Gm /EHsc /RTC1 /MDd /GS /fp:precise /Zc:wchar_t /Zc:forScope /Zc:inline /Yu"stdafx.h" /Fp"DEBUG\PRUEBA.PCH" /Fo"DEBUG\\" /Fd"DEBUG\VC140.PDB" /Gd /TP /analyze- C:\USERS\FEDE\DESKTOP\MYENGINE 16\PRUEBA\MATERIAL2.CPP
^C:\USERS\FEDE\DESKTOP\MYENGINE 16\PRUEBA\MATERIALANIMACION.CPP
/c /I..\ENGINE /ZI /nologo /W3 /WX- /sdl /Od /Oy- /D WIN32 /D _DEBUG /D _WINDOWS /D _UNICODE /D UNICODE /Gm /EHsc /RTC1 /MDd /GS /fp:precise /Zc:wchar_t /Zc:forScope /Zc:inline /Yu"stdafx.h" /Fp"DEBUG\PRUEBA.PCH" /Fo"DEBUG\\" /Fd"DEBUG\VC140.PDB" /Gd /TP /analyze- C:\USERS\FEDE\DESKTOP\MYENGINE 16\PRUEBA\MATERIALANIMACION.CPP
^C:\USERS\FEDE\DESKTOP\MYENGINE 16\PRUEBA\MATERIALTRANSPARENCIA.CPP
/c /I..\ENGINE /ZI /nologo /W3 /WX- /sdl /Od /Oy- /D WIN32 /D _DEBUG /D _WINDOWS /D _UNICODE /D UNICODE /Gm /EHsc /RTC1 /MDd /GS /fp:precise /Zc:wchar_t /Zc:forScope /Zc:inline /Yu"stdafx.h" /Fp"DEBUG\PRUEBA.PCH" /Fo"DEBUG\\" /Fd"DEBUG\VC140.PDB" /Gd /TP /analyze- C:\USERS\FEDE\DESKTOP\MYENGINE 16\PRUEBA\MATERIALTRANSPARENCIA.CPP
^C:\USERS\FEDE\DESKTOP\MYENGINE 16\PRUEBA\MIJUEGO.CPP
/c /I..\ENGINE /ZI /nologo /W3 /WX- /sdl /Od /Oy- /D WIN32 /D _DEBUG /D _WINDOWS /D _UNICODE /D UNICODE /Gm /EHsc /RTC1 /MDd /GS /fp:precise /Zc:wchar_t /Zc:forScope /Zc:inline /Yu"stdafx.h" /Fp"DEBUG\PRUEBA.PCH" /Fo"DEBUG\\" /Fd"DEBUG\VC140.PDB" /Gd /TP /analyze- C:\USERS\FEDE\DESKTOP\MYENGINE 16\PRUEBA\MIJUEGO.CPP
^C:\USERS\FEDE\DESKTOP\MYENGINE 16\PRUEBA\PRUEBA.CPP
/c /I..\ENGINE /ZI /nologo /W3 /WX- /sdl /Od /Oy- /D WIN32 /D _DEBUG /D _WINDOWS /D _UNICODE /D UNICODE /Gm /EHsc /RTC1 /MDd /GS /fp:precise /Zc:wchar_t /Zc:forScope /Zc:inline /Yu"stdafx.h" /Fp"DEBUG\PRUEBA.PCH" /Fo"DEBUG\\" /Fd"DEBUG\VC140.PDB" /Gd /TP /analyze- C:\USERS\FEDE\DESKTOP\MYENGINE 16\PRUEBA\PRUEBA.CPP
^C:\USERS\826\DESKTOP\MYENGINE 17\PRUEBA\STDAFX.CPP
/c /I..\Engine /ZI /nologo /W3 /WX- /sdl /Od /Oy- /D WIN32 /D _DEBUG /D _WINDOWS /D _UNICODE /D UNICODE /Gm /EHsc /RTC1 /MDd /GS /fp:precise /Zc:wchar_t /Zc:forScope /Yc"stdafx.h" /Fp"DEBUG\PRUEBA.PCH" /Fo"DEBUG\\" /Fd"DEBUG\VC120.PDB" /Gd /TP /analyze- C:\USERS\826\DESKTOP\MYENGINE 17\PRUEBA\STDAFX.CPP
^C:\USERS\826\DESKTOP\MYENGINE 17\PRUEBA\CORRERBRAID.CPP
/c /I..\Engine /ZI /nologo /W3 /WX- /sdl /Od /Oy- /D WIN32 /D _DEBUG /D _WINDOWS /D _UNICODE /D UNICODE /Gm /EHsc /RTC1 /MDd /GS /fp:precise /Zc:wchar_t /Zc:forScope /Yu"stdafx.h" /Fp"DEBUG\PRUEBA.PCH" /Fo"DEBUG\\" /Fd"DEBUG\VC120.PDB" /Gd /TP /analyze- C:\USERS\826\DESKTOP\MYENGINE 17\PRUEBA\CORRERBRAID.CPP
^C:\USERS\826\DESKTOP\MYENGINE 17\PRUEBA\MATERIAL1.CPP
/c /I..\Engine /ZI /nologo /W3 /WX- /sdl /Od /Oy- /D WIN32 /D _DEBUG /D _WINDOWS /D _UNICODE /D UNICODE /Gm /EHsc /RTC1 /MDd /GS /fp:precise /Zc:wchar_t /Zc:forScope /Yu"stdafx.h" /Fp"DEBUG\PRUEBA.PCH" /Fo"DEBUG\\" /Fd"DEBUG\VC120.PDB" /Gd /TP /analyze- C:\USERS\826\DESKTOP\MYENGINE 17\PRUEBA\MATERIAL1.CPP
^C:\USERS\826\DESKTOP\MYENGINE 17\PRUEBA\MATERIAL2.CPP
/c /I..\Engine /ZI /nologo /W3 /WX- /sdl /Od /Oy- /D WIN32 /D _DEBUG /D _WINDOWS /D _UNICODE /D UNICODE /Gm /EHsc /RTC1 /MDd /GS /fp:precise /Zc:wchar_t /Zc:forScope /Yu"stdafx.h" /Fp"DEBUG\PRUEBA.PCH" /Fo"DEBUG\\" /Fd"DEBUG\VC120.PDB" /Gd /TP /analyze- C:\USERS\826\DESKTOP\MYENGINE 17\PRUEBA\MATERIAL2.CPP
^C:\USERS\826\DESKTOP\MYENGINE 17\PRUEBA\MATERIALANIMACION.CPP
/c /I..\Engine /ZI /nologo /W3 /WX- /sdl /Od /Oy- /D WIN32 /D _DEBUG /D _WINDOWS /D _UNICODE /D UNICODE /Gm /EHsc /RTC1 /MDd /GS /fp:precise /Zc:wchar_t /Zc:forScope /Yu"stdafx.h" /Fp"DEBUG\PRUEBA.PCH" /Fo"DEBUG\\" /Fd"DEBUG\VC120.PDB" /Gd /TP /analyze- C:\USERS\826\DESKTOP\MYENGINE 17\PRUEBA\MATERIALANIMACION.CPP
^C:\USERS\826\DESKTOP\MYENGINE 17\PRUEBA\MATERIALTRANSPARENCIA.CPP
/c /I..\Engine /ZI /nologo /W3 /WX- /sdl /Od /Oy- /D WIN32 /D _DEBUG /D _WINDOWS /D _UNICODE /D UNICODE /Gm /EHsc /RTC1 /MDd /GS /fp:precise /Zc:wchar_t /Zc:forScope /Yu"stdafx.h" /Fp"DEBUG\PRUEBA.PCH" /Fo"DEBUG\\" /Fd"DEBUG\VC120.PDB" /Gd /TP /analyze- C:\USERS\826\DESKTOP\MYENGINE 17\PRUEBA\MATERIALTRANSPARENCIA.CPP
^C:\USERS\826\DESKTOP\MYENGINE 17\PRUEBA\MIJUEGO.CPP
/c /I..\Engine /ZI /nologo /W3 /WX- /sdl /Od /Oy- /D WIN32 /D _DEBUG /D _WINDOWS /D _UNICODE /D UNICODE /Gm /EHsc /RTC1 /MDd /GS /fp:precise /Zc:wchar_t /Zc:forScope /Yu"stdafx.h" /Fp"DEBUG\PRUEBA.PCH" /Fo"DEBUG\\" /Fd"DEBUG\VC120.PDB" /Gd /TP /analyze- C:\USERS\826\DESKTOP\MYENGINE 17\PRUEBA\MIJUEGO.CPP
^C:\USERS\826\DESKTOP\MYENGINE 17\PRUEBA\PRUEBA.CPP
/c /I..\Engine /ZI /nologo /W3 /WX- /sdl /Od /Oy- /D WIN32 /D _DEBUG /D _WINDOWS /D _UNICODE /D UNICODE /Gm /EHsc /RTC1 /MDd /GS /fp:precise /Zc:wchar_t /Zc:forScope /Yu"stdafx.h" /Fp"DEBUG\PRUEBA.PCH" /Fo"DEBUG\\" /Fd"DEBUG\VC120.PDB" /Gd /TP /analyze- C:\USERS\826\DESKTOP\MYENGINE 17\PRUEBA\PRUEBA.CPP
^C:\USERS\FEDE\DESKTOP\MYENGINE 18\PRUEBA\STDAFX.CPP
/c /I..\ENGINE /ZI /nologo /W3 /WX- /sdl /Od /Oy- /D WIN32 /D _DEBUG /D _WINDOWS /D _UNICODE /D UNICODE /Gm /EHsc /RTC1 /MDd /GS /fp:precise /Zc:wchar_t /Zc:forScope /Zc:inline /Yc"stdafx.h" /Fp"DEBUG\PRUEBA.PCH" /Fo"DEBUG\\" /Fd"DEBUG\VC140.PDB" /Gd /TP /analyze- C:\USERS\FEDE\DESKTOP\MYENGINE 18\PRUEBA\STDAFX.CPP
^C:\USERS\FEDE\DESKTOP\MYENGINE 18\PRUEBA\CORRERBRAID.CPP
/c /I..\ENGINE /ZI /nologo /W3 /WX- /sdl /Od /Oy- /D WIN32 /D _DEBUG /D _WINDOWS /D _UNICODE /D UNICODE /Gm /EHsc /RTC1 /MDd /GS /fp:precise /Zc:wchar_t /Zc:forScope /Zc:inline /Yu"stdafx.h" /Fp"DEBUG\PRUEBA.PCH" /Fo"DEBUG\\" /Fd"DEBUG\VC140.PDB" /Gd /TP /analyze- C:\USERS\FEDE\DESKTOP\MYENGINE 18\PRUEBA\CORRERBRAID.CPP
^C:\USERS\FEDE\DESKTOP\MYENGINE 18\PRUEBA\MATERIAL1.CPP
/c /I..\ENGINE /ZI /nologo /W3 /WX- /sdl /Od /Oy- /D WIN32 /D _DEBUG /D _WINDOWS /D _UNICODE /D UNICODE /Gm /EHsc /RTC1 /MDd /GS /fp:precise /Zc:wchar_t /Zc:forScope /Zc:inline /Yu"stdafx.h" /Fp"DEBUG\PRUEBA.PCH" /Fo"DEBUG\\" /Fd"DEBUG\VC140.PDB" /Gd /TP /analyze- C:\USERS\FEDE\DESKTOP\MYENGINE 18\PRUEBA\MATERIAL1.CPP
^C:\USERS\FEDE\DESKTOP\MYENGINE 18\PRUEBA\MATERIAL2.CPP
/c /I..\ENGINE /ZI /nologo /W3 /WX- /sdl /Od /Oy- /D WIN32 /D _DEBUG /D _WINDOWS /D _UNICODE /D UNICODE /Gm /EHsc /RTC1 /MDd /GS /fp:precise /Zc:wchar_t /Zc:forScope /Zc:inline /Yu"stdafx.h" /Fp"DEBUG\PRUEBA.PCH" /Fo"DEBUG\\" /Fd"DEBUG\VC140.PDB" /Gd /TP /analyze- C:\USERS\FEDE\DESKTOP\MYENGINE 18\PRUEBA\MATERIAL2.CPP
^C:\USERS\FEDE\DESKTOP\MYENGINE 18\PRUEBA\MATERIALANIMACION.CPP
/c /I..\ENGINE /ZI /nologo /W3 /WX- /sdl /Od /Oy- /D WIN32 /D _DEBUG /D _WINDOWS /D _UNICODE /D UNICODE /Gm /EHsc /RTC1 /MDd /GS /fp:precise /Zc:wchar_t /Zc:forScope /Zc:inline /Yu"stdafx.h" /Fp"DEBUG\PRUEBA.PCH" /Fo"DEBUG\\" /Fd"DEBUG\VC140.PDB" /Gd /TP /analyze- C:\USERS\FEDE\DESKTOP\MYENGINE 18\PRUEBA\MATERIALANIMACION.CPP
^C:\USERS\FEDE\DESKTOP\MYENGINE 18\PRUEBA\MATERIALTRANSPARENCIA.CPP
/c /I..\ENGINE /ZI /nologo /W3 /WX- /sdl /Od /Oy- /D WIN32 /D _DEBUG /D _WINDOWS /D _UNICODE /D UNICODE /Gm /EHsc /RTC1 /MDd /GS /fp:precise /Zc:wchar_t /Zc:forScope /Zc:inline /Yu"stdafx.h" /Fp"DEBUG\PRUEBA.PCH" /Fo"DEBUG\\" /Fd"DEBUG\VC140.PDB" /Gd /TP /analyze- C:\USERS\FEDE\DESKTOP\MYENGINE 18\PRUEBA\MATERIALTRANSPARENCIA.CPP
^C:\USERS\FEDE\DESKTOP\MYENGINE 18\PRUEBA\MIJUEGO.CPP
/c /I..\ENGINE /ZI /nologo /W3 /WX- /sdl /Od /Oy- /D WIN32 /D _DEBUG /D _WINDOWS /D _UNICODE /D UNICODE /Gm /EHsc /RTC1 /MDd /GS /fp:precise /Zc:wchar_t /Zc:forScope /Zc:inline /Yu"stdafx.h" /Fp"DEBUG\PRUEBA.PCH" /Fo"DEBUG\\" /Fd"DEBUG\VC140.PDB" /Gd /TP /analyze- C:\USERS\FEDE\DESKTOP\MYENGINE 18\PRUEBA\MIJUEGO.CPP
^C:\USERS\FEDE\DESKTOP\MYENGINE 18\PRUEBA\PRUEBA.CPP
/c /I..\ENGINE /ZI /nologo /W3 /WX- /sdl /Od /Oy- /D WIN32 /D _DEBUG /D _WINDOWS /D _UNICODE /D UNICODE /Gm /EHsc /RTC1 /MDd /GS /fp:precise /Zc:wchar_t /Zc:forScope /Zc:inline /Yu"stdafx.h" /Fp"DEBUG\PRUEBA.PCH" /Fo"DEBUG\\" /Fd"DEBUG\VC140.PDB" /Gd /TP /analyze- C:\USERS\FEDE\DESKTOP\MYENGINE 18\PRUEBA\PRUEBA.CPP
^C:\USERS\826\DESKTOP\MYENGINE 19\PRUEBA\STDAFX.CPP
/c /I..\Engine /ZI /nologo /W3 /WX- /sdl /Od /Oy- /D WIN32 /D _DEBUG /D _WINDOWS /D _UNICODE /D UNICODE /Gm /EHsc /RTC1 /MDd /GS /fp:precise /Zc:wchar_t /Zc:forScope /Yc"stdafx.h" /Fp"DEBUG\PRUEBA.PCH" /Fo"DEBUG\\" /Fd"DEBUG\VC120.PDB" /Gd /TP /analyze- C:\USERS\826\DESKTOP\MYENGINE 19\PRUEBA\STDAFX.CPP
^C:\USERS\826\DESKTOP\MYENGINE 19\PRUEBA\CORRERBRAID.CPP
/c /I..\Engine /ZI /nologo /W3 /WX- /sdl /Od /Oy- /D WIN32 /D _DEBUG /D _WINDOWS /D _UNICODE /D UNICODE /Gm /EHsc /RTC1 /MDd /GS /fp:precise /Zc:wchar_t /Zc:forScope /Yu"stdafx.h" /Fp"DEBUG\PRUEBA.PCH" /Fo"DEBUG\\" /Fd"DEBUG\VC120.PDB" /Gd /TP /analyze- C:\USERS\826\DESKTOP\MYENGINE 19\PRUEBA\CORRERBRAID.CPP
^C:\USERS\826\DESKTOP\MYENGINE 19\PRUEBA\MATERIAL1.CPP
/c /I..\Engine /ZI /nologo /W3 /WX- /sdl /Od /Oy- /D WIN32 /D _DEBUG /D _WINDOWS /D _UNICODE /D UNICODE /Gm /EHsc /RTC1 /MDd /GS /fp:precise /Zc:wchar_t /Zc:forScope /Yu"stdafx.h" /Fp"DEBUG\PRUEBA.PCH" /Fo"DEBUG\\" /Fd"DEBUG\VC120.PDB" /Gd /TP /analyze- C:\USERS\826\DESKTOP\MYENGINE 19\PRUEBA\MATERIAL1.CPP
^C:\USERS\826\DESKTOP\MYENGINE 19\PRUEBA\MATERIAL2.CPP
/c /I..\Engine /ZI /nologo /W3 /WX- /sdl /Od /Oy- /D WIN32 /D _DEBUG /D _WINDOWS /D _UNICODE /D UNICODE /Gm /EHsc /RTC1 /MDd /GS /fp:precise /Zc:wchar_t /Zc:forScope /Yu"stdafx.h" /Fp"DEBUG\PRUEBA.PCH" /Fo"DEBUG\\" /Fd"DEBUG\VC120.PDB" /Gd /TP /analyze- C:\USERS\826\DESKTOP\MYENGINE 19\PRUEBA\MATERIAL2.CPP
^C:\USERS\826\DESKTOP\MYENGINE 19\PRUEBA\MATERIALANIMACION.CPP
/c /I..\Engine /ZI /nologo /W3 /WX- /sdl /Od /Oy- /D WIN32 /D _DEBUG /D _WINDOWS /D _UNICODE /D UNICODE /Gm /EHsc /RTC1 /MDd /GS /fp:precise /Zc:wchar_t /Zc:forScope /Yu"stdafx.h" /Fp"DEBUG\PRUEBA.PCH" /Fo"DEBUG\\" /Fd"DEBUG\VC120.PDB" /Gd /TP /analyze- C:\USERS\826\DESKTOP\MYENGINE 19\PRUEBA\MATERIALANIMACION.CPP
^C:\USERS\826\DESKTOP\MYENGINE 19\PRUEBA\MATERIALTRANSPARENCIA.CPP
/c /I..\Engine /ZI /nologo /W3 /WX- /sdl /Od /Oy- /D WIN32 /D _DEBUG /D _WINDOWS /D _UNICODE /D UNICODE /Gm /EHsc /RTC1 /MDd /GS /fp:precise /Zc:wchar_t /Zc:forScope /Yu"stdafx.h" /Fp"DEBUG\PRUEBA.PCH" /Fo"DEBUG\\" /Fd"DEBUG\VC120.PDB" /Gd /TP /analyze- C:\USERS\826\DESKTOP\MYENGINE 19\PRUEBA\MATERIALTRANSPARENCIA.CPP
^C:\USERS\826\DESKTOP\MYENGINE 19\PRUEBA\MIJUEGO.CPP
/c /I..\Engine /ZI /nologo /W3 /WX- /sdl /Od /Oy- /D WIN32 /D _DEBUG /D _WINDOWS /D _UNICODE /D UNICODE /Gm /EHsc /RTC1 /MDd /GS /fp:precise /Zc:wchar_t /Zc:forScope /Yu"stdafx.h" /Fp"DEBUG\PRUEBA.PCH" /Fo"DEBUG\\" /Fd"DEBUG\VC120.PDB" /Gd /TP /analyze- C:\USERS\826\DESKTOP\MYENGINE 19\PRUEBA\MIJUEGO.CPP
^C:\USERS\826\DESKTOP\MYENGINE 19\PRUEBA\PRUEBA.CPP
/c /I..\Engine /ZI /nologo /W3 /WX- /sdl /Od /Oy- /D WIN32 /D _DEBUG /D _WINDOWS /D _UNICODE /D UNICODE /Gm /EHsc /RTC1 /MDd /GS /fp:precise /Zc:wchar_t /Zc:forScope /Yu"stdafx.h" /Fp"DEBUG\PRUEBA.PCH" /Fo"DEBUG\\" /Fd"DEBUG\VC120.PDB" /Gd /TP /analyze- C:\USERS\826\DESKTOP\MYENGINE 19\PRUEBA\PRUEBA.CPP
^C:\USERS\826\DESKTOP\MYENGINE 19\PRUEBA\BRAID.CPP
/c /I..\Engine /ZI /nologo /W3 /WX- /sdl /Od /Oy- /D WIN32 /D _DEBUG /D _WINDOWS /D _UNICODE /D UNICODE /Gm /EHsc /RTC1 /MDd /GS /fp:precise /Zc:wchar_t /Zc:forScope /Yu"stdafx.h" /Fp"DEBUG\PRUEBA.PCH" /Fo"DEBUG\\" /Fd"DEBUG\VC120.PDB" /Gd /TP /analyze- C:\USERS\826\DESKTOP\MYENGINE 19\PRUEBA\BRAID.CPP
^C:\USERS\NICOL\DESKTOP\NEW FOLDER (3)\PRUEBA\STDAFX.CPP
/c /I..\Engine /ZI /nologo /W3 /WX- /sdl /Od /Oy- /D WIN32 /D _DEBUG /D _WINDOWS /D _UNICODE /D UNICODE /Gm /EHsc /RTC1 /MDd /GS /fp:precise /Zc:wchar_t /Zc:forScope /Yc"stdafx.h" /Fp"DEBUG\PRUEBA.PCH" /Fo"DEBUG\\" /Fd"DEBUG\VC120.PDB" /Gd /TP /analyze- C:\USERS\NICOL\DESKTOP\NEW FOLDER (3)\PRUEBA\STDAFX.CPP
^C:\USERS\NICOL\DESKTOP\NEW FOLDER (3)\PRUEBA\BRAID.CPP
/c /I..\Engine /ZI /nologo /W3 /WX- /sdl /Od /Oy- /D WIN32 /D _DEBUG /D _WINDOWS /D _UNICODE /D UNICODE /Gm /EHsc /RTC1 /MDd /GS /fp:precise /Zc:wchar_t /Zc:forScope /Yu"stdafx.h" /Fp"DEBUG\PRUEBA.PCH" /Fo"DEBUG\\" /Fd"DEBUG\VC120.PDB" /Gd /TP /analyze- C:\USERS\NICOL\DESKTOP\NEW FOLDER (3)\PRUEBA\BRAID.CPP
^C:\USERS\NICOL\DESKTOP\NEW FOLDER (3)\PRUEBA\CORRERBRAID.CPP
/c /I..\Engine /ZI /nologo /W3 /WX- /sdl /Od /Oy- /D WIN32 /D _DEBUG /D _WINDOWS /D _UNICODE /D UNICODE /Gm /EHsc /RTC1 /MDd /GS /fp:precise /Zc:wchar_t /Zc:forScope /Yu"stdafx.h" /Fp"DEBUG\PRUEBA.PCH" /Fo"DEBUG\\" /Fd"DEBUG\VC120.PDB" /Gd /TP /analyze- C:\USERS\NICOL\DESKTOP\NEW FOLDER (3)\PRUEBA\CORRERBRAID.CPP
^C:\USERS\NICOL\DESKTOP\NEW FOLDER (3)\PRUEBA\MATERIAL1.CPP
/c /I..\Engine /ZI /nologo /W3 /WX- /sdl /Od /Oy- /D WIN32 /D _DEBUG /D _WINDOWS /D _UNICODE /D UNICODE /Gm /EHsc /RTC1 /MDd /GS /fp:precise /Zc:wchar_t /Zc:forScope /Yu"stdafx.h" /Fp"DEBUG\PRUEBA.PCH" /Fo"DEBUG\\" /Fd"DEBUG\VC120.PDB" /Gd /TP /analyze- C:\USERS\NICOL\DESKTOP\NEW FOLDER (3)\PRUEBA\MATERIAL1.CPP
^C:\USERS\NICOL\DESKTOP\NEW FOLDER (3)\PRUEBA\MATERIAL2.CPP
/c /I..\Engine /ZI /nologo /W3 /WX- /sdl /Od /Oy- /D WIN32 /D _DEBUG /D _WINDOWS /D _UNICODE /D UNICODE /Gm /EHsc /RTC1 /MDd /GS /fp:precise /Zc:wchar_t /Zc:forScope /Yu"stdafx.h" /Fp"DEBUG\PRUEBA.PCH" /Fo"DEBUG\\" /Fd"DEBUG\VC120.PDB" /Gd /TP /analyze- C:\USERS\NICOL\DESKTOP\NEW FOLDER (3)\PRUEBA\MATERIAL2.CPP
^C:\USERS\NICOL\DESKTOP\NEW FOLDER (3)\PRUEBA\MATERIALANIMACION.CPP
/c /I..\Engine /ZI /nologo /W3 /WX- /sdl /Od /Oy- /D WIN32 /D _DEBUG /D _WINDOWS /D _UNICODE /D UNICODE /Gm /EHsc /RTC1 /MDd /GS /fp:precise /Zc:wchar_t /Zc:forScope /Yu"stdafx.h" /Fp"DEBUG\PRUEBA.PCH" /Fo"DEBUG\\" /Fd"DEBUG\VC120.PDB" /Gd /TP /analyze- C:\USERS\NICOL\DESKTOP\NEW FOLDER (3)\PRUEBA\MATERIALANIMACION.CPP
^C:\USERS\NICOL\DESKTOP\NEW FOLDER (3)\PRUEBA\MATERIALTRANSPARENCIA.CPP
/c /I..\Engine /ZI /nologo /W3 /WX- /sdl /Od /Oy- /D WIN32 /D _DEBUG /D _WINDOWS /D _UNICODE /D UNICODE /Gm /EHsc /RTC1 /MDd /GS /fp:precise /Zc:wchar_t /Zc:forScope /Yu"stdafx.h" /Fp"DEBUG\PRUEBA.PCH" /Fo"DEBUG\\" /Fd"DEBUG\VC120.PDB" /Gd /TP /analyze- C:\USERS\NICOL\DESKTOP\NEW FOLDER (3)\PRUEBA\MATERIALTRANSPARENCIA.CPP
^C:\USERS\NICOL\DESKTOP\NEW FOLDER (3)\PRUEBA\MIJUEGO.CPP
/c /I..\Engine /ZI /nologo /W3 /WX- /sdl /Od /Oy- /D WIN32 /D _DEBUG /D _WINDOWS /D _UNICODE /D UNICODE /Gm /EHsc /RTC1 /MDd /GS /fp:precise /Zc:wchar_t /Zc:forScope /Yu"stdafx.h" /Fp"DEBUG\PRUEBA.PCH" /Fo"DEBUG\\" /Fd"DEBUG\VC120.PDB" /Gd /TP /analyze- C:\USERS\NICOL\DESKTOP\NEW FOLDER (3)\PRUEBA\MIJUEGO.CPP
^C:\USERS\NICOL\DESKTOP\NEW FOLDER (3)\PRUEBA\PRUEBA.CPP
/c /I..\Engine /ZI /nologo /W3 /WX- /sdl /Od /Oy- /D WIN32 /D _DEBUG /D _WINDOWS /D _UNICODE /D UNICODE /Gm /EHsc /RTC1 /MDd /GS /fp:precise /Zc:wchar_t /Zc:forScope /Yu"stdafx.h" /Fp"DEBUG\PRUEBA.PCH" /Fo"DEBUG\\" /Fd"DEBUG\VC120.PDB" /Gd /TP /analyze- C:\USERS\NICOL\DESKTOP\NEW FOLDER (3)\PRUEBA\PRUEBA.CPP
^C:\USERS\NICOL\DESKTOP\ESTA ES LA QUE VA - ENGINE\PRUEBA\STDAFX.CPP
/c /I..\Engine /ZI /nologo /W3 /WX- /sdl /Od /Oy- /D WIN32 /D _DEBUG /D _WINDOWS /D _UNICODE /D UNICODE /Gm /EHsc /RTC1 /MDd /GS /fp:precise /Zc:wchar_t /Zc:forScope /Yc"stdafx.h" /Fp"DEBUG\PRUEBA.PCH" /Fo"DEBUG\\" /Fd"DEBUG\VC120.PDB" /Gd /TP /analyze- C:\USERS\NICOL\DESKTOP\ESTA ES LA QUE VA - ENGINE\PRUEBA\STDAFX.CPP
^C:\USERS\NICOL\DESKTOP\ESTA ES LA QUE VA - ENGINE\PRUEBA\BRAID.CPP
/c /I..\Engine /ZI /nologo /W3 /WX- /sdl /Od /Oy- /D WIN32 /D _DEBUG /D _WINDOWS /D _UNICODE /D UNICODE /Gm /EHsc /RTC1 /MDd /GS /fp:precise /Zc:wchar_t /Zc:forScope /Yu"stdafx.h" /Fp"DEBUG\PRUEBA.PCH" /Fo"DEBUG\\" /Fd"DEBUG\VC120.PDB" /Gd /TP /analyze- C:\USERS\NICOL\DESKTOP\ESTA ES LA QUE VA - ENGINE\PRUEBA\BRAID.CPP
^C:\USERS\NICOL\DESKTOP\ESTA ES LA QUE VA - ENGINE\PRUEBA\CORRERBRAID.CPP
/c /I..\Engine /ZI /nologo /W3 /WX- /sdl /Od /Oy- /D WIN32 /D _DEBUG /D _WINDOWS /D _UNICODE /D UNICODE /Gm /EHsc /RTC1 /MDd /GS /fp:precise /Zc:wchar_t /Zc:forScope /Yu"stdafx.h" /Fp"DEBUG\PRUEBA.PCH" /Fo"DEBUG\\" /Fd"DEBUG\VC120.PDB" /Gd /TP /analyze- C:\USERS\NICOL\DESKTOP\ESTA ES LA QUE VA - ENGINE\PRUEBA\CORRERBRAID.CPP
^C:\USERS\NICOL\DESKTOP\ESTA ES LA QUE VA - ENGINE\PRUEBA\MATERIAL1.CPP
/c /I..\Engine /ZI /nologo /W3 /WX- /sdl /Od /Oy- /D WIN32 /D _DEBUG /D _WINDOWS /D _UNICODE /D UNICODE /Gm /EHsc /RTC1 /MDd /GS /fp:precise /Zc:wchar_t /Zc:forScope /Yu"stdafx.h" /Fp"DEBUG\PRUEBA.PCH" /Fo"DEBUG\\" /Fd"DEBUG\VC120.PDB" /Gd /TP /analyze- C:\USERS\NICOL\DESKTOP\ESTA ES LA QUE VA - ENGINE\PRUEBA\MATERIAL1.CPP
^C:\USERS\NICOL\DESKTOP\ESTA ES LA QUE VA - ENGINE\PRUEBA\MATERIAL2.CPP
/c /I..\Engine /ZI /nologo /W3 /WX- /sdl /Od /Oy- /D WIN32 /D _DEBUG /D _WINDOWS /D _UNICODE /D UNICODE /Gm /EHsc /RTC1 /MDd /GS /fp:precise /Zc:wchar_t /Zc:forScope /Yu"stdafx.h" /Fp"DEBUG\PRUEBA.PCH" /Fo"DEBUG\\" /Fd"DEBUG\VC120.PDB" /Gd /TP /analyze- C:\USERS\NICOL\DESKTOP\ESTA ES LA QUE VA - ENGINE\PRUEBA\MATERIAL2.CPP
^C:\USERS\NICOL\DESKTOP\ESTA ES LA QUE VA - ENGINE\PRUEBA\MATERIALANIMACION.CPP
/c /I..\Engine /ZI /nologo /W3 /WX- /sdl /Od /Oy- /D WIN32 /D _DEBUG /D _WINDOWS /D _UNICODE /D UNICODE /Gm /EHsc /RTC1 /MDd /GS /fp:precise /Zc:wchar_t /Zc:forScope /Yu"stdafx.h" /Fp"DEBUG\PRUEBA.PCH" /Fo"DEBUG\\" /Fd"DEBUG\VC120.PDB" /Gd /TP /analyze- C:\USERS\NICOL\DESKTOP\ESTA ES LA QUE VA - ENGINE\PRUEBA\MATERIALANIMACION.CPP
^C:\USERS\NICOL\DESKTOP\ESTA ES LA QUE VA - ENGINE\PRUEBA\MATERIALTRANSPARENCIA.CPP
/c /I..\Engine /ZI /nologo /W3 /WX- /sdl /Od /Oy- /D WIN32 /D _DEBUG /D _WINDOWS /D _UNICODE /D UNICODE /Gm /EHsc /RTC1 /MDd /GS /fp:precise /Zc:wchar_t /Zc:forScope /Yu"stdafx.h" /Fp"DEBUG\PRUEBA.PCH" /Fo"DEBUG\\" /Fd"DEBUG\VC120.PDB" /Gd /TP /analyze- C:\USERS\NICOL\DESKTOP\ESTA ES LA QUE VA - ENGINE\PRUEBA\MATERIALTRANSPARENCIA.CPP
^C:\USERS\NICOL\DESKTOP\ESTA ES LA QUE VA - ENGINE\PRUEBA\MIJUEGO.CPP
/c /I..\Engine /ZI /nologo /W3 /WX- /sdl /Od /Oy- /D WIN32 /D _DEBUG /D _WINDOWS /D _UNICODE /D UNICODE /Gm /EHsc /RTC1 /MDd /GS /fp:precise /Zc:wchar_t /Zc:forScope /Yu"stdafx.h" /Fp"DEBUG\PRUEBA.PCH" /Fo"DEBUG\\" /Fd"DEBUG\VC120.PDB" /Gd /TP /analyze- C:\USERS\NICOL\DESKTOP\ESTA ES LA QUE VA - ENGINE\PRUEBA\MIJUEGO.CPP
^C:\USERS\NICOL\DESKTOP\ESTA ES LA QUE VA - ENGINE\PRUEBA\PRUEBA.CPP
/c /I..\Engine /ZI /nologo /W3 /WX- /sdl /Od /Oy- /D WIN32 /D _DEBUG /D _WINDOWS /D _UNICODE /D UNICODE /Gm /EHsc /RTC1 /MDd /GS /fp:precise /Zc:wchar_t /Zc:forScope /Yu"stdafx.h" /Fp"DEBUG\PRUEBA.PCH" /Fo"DEBUG\\" /Fd"DEBUG\VC120.PDB" /Gd /TP /analyze- C:\USERS\NICOL\DESKTOP\ESTA ES LA QUE VA - ENGINE\PRUEBA\PRUEBA.CPP
^C:\USERS\NICOL\DESKTOP\NEW FOLDER (3)\ESTA ES LA QUE VA - ENGINE\PRUEBA\STDAFX.CPP
/c /I..\Engine /ZI /nologo /W3 /WX- /sdl /Od /Oy- /D WIN32 /D _DEBUG /D _WINDOWS /D _UNICODE /D UNICODE /Gm /EHsc /RTC1 /MDd /GS /fp:precise /Zc:wchar_t /Zc:forScope /Yc"stdafx.h" /Fp"DEBUG\PRUEBA.PCH" /Fo"DEBUG\\" /Fd"DEBUG\VC120.PDB" /Gd /TP /analyze- C:\USERS\NICOL\DESKTOP\NEW FOLDER (3)\ESTA ES LA QUE VA - ENGINE\PRUEBA\STDAFX.CPP
^C:\USERS\NICOL\DESKTOP\NEW FOLDER (3)\ESTA ES LA QUE VA - ENGINE\PRUEBA\BRAID.CPP
/c /I..\Engine /ZI /nologo /W3 /WX- /sdl /Od /Oy- /D WIN32 /D _DEBUG /D _WINDOWS /D _UNICODE /D UNICODE /Gm /EHsc /RTC1 /MDd /GS /fp:precise /Zc:wchar_t /Zc:forScope /Yu"stdafx.h" /Fp"DEBUG\PRUEBA.PCH" /Fo"DEBUG\\" /Fd"DEBUG\VC120.PDB" /Gd /TP /analyze- C:\USERS\NICOL\DESKTOP\NEW FOLDER (3)\ESTA ES LA QUE VA - ENGINE\PRUEBA\BRAID.CPP
^C:\USERS\NICOL\DESKTOP\NEW FOLDER (3)\ESTA ES LA QUE VA - ENGINE\PRUEBA\CORRERBRAID.CPP
/c /I..\Engine /ZI /nologo /W3 /WX- /sdl /Od /Oy- /D WIN32 /D _DEBUG /D _WINDOWS /D _UNICODE /D UNICODE /Gm /EHsc /RTC1 /MDd /GS /fp:precise /Zc:wchar_t /Zc:forScope /Yu"stdafx.h" /Fp"DEBUG\PRUEBA.PCH" /Fo"DEBUG\\" /Fd"DEBUG\VC120.PDB" /Gd /TP /analyze- C:\USERS\NICOL\DESKTOP\NEW FOLDER (3)\ESTA ES LA QUE VA - ENGINE\PRUEBA\CORRERBRAID.CPP
^C:\USERS\NICOL\DESKTOP\NEW FOLDER (3)\ESTA ES LA QUE VA - ENGINE\PRUEBA\MATERIAL1.CPP
/c /I..\Engine /ZI /nologo /W3 /WX- /sdl /Od /Oy- /D WIN32 /D _DEBUG /D _WINDOWS /D _UNICODE /D UNICODE /Gm /EHsc /RTC1 /MDd /GS /fp:precise /Zc:wchar_t /Zc:forScope /Yu"stdafx.h" /Fp"DEBUG\PRUEBA.PCH" /Fo"DEBUG\\" /Fd"DEBUG\VC120.PDB" /Gd /TP /analyze- C:\USERS\NICOL\DESKTOP\NEW FOLDER (3)\ESTA ES LA QUE VA - ENGINE\PRUEBA\MATERIAL1.CPP
^C:\USERS\NICOL\DESKTOP\NEW FOLDER (3)\ESTA ES LA QUE VA - ENGINE\PRUEBA\MATERIAL2.CPP
/c /I..\Engine /ZI /nologo /W3 /WX- /sdl /Od /Oy- /D WIN32 /D _DEBUG /D _WINDOWS /D _UNICODE /D UNICODE /Gm /EHsc /RTC1 /MDd /GS /fp:precise /Zc:wchar_t /Zc:forScope /Yu"stdafx.h" /Fp"DEBUG\PRUEBA.PCH" /Fo"DEBUG\\" /Fd"DEBUG\VC120.PDB" /Gd /TP /analyze- C:\USERS\NICOL\DESKTOP\NEW FOLDER (3)\ESTA ES LA QUE VA - ENGINE\PRUEBA\MATERIAL2.CPP
^C:\USERS\NICOL\DESKTOP\NEW FOLDER (3)\ESTA ES LA QUE VA - ENGINE\PRUEBA\MATERIALANIMACION.CPP
/c /I..\Engine /ZI /nologo /W3 /WX- /sdl /Od /Oy- /D WIN32 /D _DEBUG /D _WINDOWS /D _UNICODE /D UNICODE /Gm /EHsc /RTC1 /MDd /GS /fp:precise /Zc:wchar_t /Zc:forScope /Yu"stdafx.h" /Fp"DEBUG\PRUEBA.PCH" /Fo"DEBUG\\" /Fd"DEBUG\VC120.PDB" /Gd /TP /analyze- C:\USERS\NICOL\DESKTOP\NEW FOLDER (3)\ESTA ES LA QUE VA - ENGINE\PRUEBA\MATERIALANIMACION.CPP
^C:\USERS\NICOL\DESKTOP\NEW FOLDER (3)\ESTA ES LA QUE VA - ENGINE\PRUEBA\MATERIALTRANSPARENCIA.CPP
/c /I..\Engine /ZI /nologo /W3 /WX- /sdl /Od /Oy- /D WIN32 /D _DEBUG /D _WINDOWS /D _UNICODE /D UNICODE /Gm /EHsc /RTC1 /MDd /GS /fp:precise /Zc:wchar_t /Zc:forScope /Yu"stdafx.h" /Fp"DEBUG\PRUEBA.PCH" /Fo"DEBUG\\" /Fd"DEBUG\VC120.PDB" /Gd /TP /analyze- C:\USERS\NICOL\DESKTOP\NEW FOLDER (3)\ESTA ES LA QUE VA - ENGINE\PRUEBA\MATERIALTRANSPARENCIA.CPP
^C:\USERS\NICOL\DESKTOP\NEW FOLDER (3)\ESTA ES LA QUE VA - ENGINE\PRUEBA\MIJUEGO.CPP
/c /I..\Engine /ZI /nologo /W3 /WX- /sdl /Od /Oy- /D WIN32 /D _DEBUG /D _WINDOWS /D _UNICODE /D UNICODE /Gm /EHsc /RTC1 /MDd /GS /fp:precise /Zc:wchar_t /Zc:forScope /Yu"stdafx.h" /Fp"DEBUG\PRUEBA.PCH" /Fo"DEBUG\\" /Fd"DEBUG\VC120.PDB" /Gd /TP /analyze- C:\USERS\NICOL\DESKTOP\NEW FOLDER (3)\ESTA ES LA QUE VA - ENGINE\PRUEBA\MIJUEGO.CPP
^C:\USERS\NICOL\DESKTOP\NEW FOLDER (3)\ESTA ES LA QUE VA - ENGINE\PRUEBA\PRUEBA.CPP
/c /I..\Engine /ZI /nologo /W3 /WX- /sdl /Od /Oy- /D WIN32 /D _DEBUG /D _WINDOWS /D _UNICODE /D UNICODE /Gm /EHsc /RTC1 /MDd /GS /fp:precise /Zc:wchar_t /Zc:forScope /Yu"stdafx.h" /Fp"DEBUG\PRUEBA.PCH" /Fo"DEBUG\\" /Fd"DEBUG\VC120.PDB" /Gd /TP /analyze- C:\USERS\NICOL\DESKTOP\NEW FOLDER (3)\ESTA ES LA QUE VA - ENGINE\PRUEBA\PRUEBA.CPP
^D:\PROGRAMACION-DE-GRAFICOS-II\PRUEBA\STDAFX.CPP
/c /I..\Engine /ZI /nologo /W3 /WX- /sdl /Od /Oy- /D WIN32 /D _DEBUG /D _UNICODE /D UNICODE /Gm /EHsc /RTC1 /MDd /GS /fp:precise /Zc:wchar_t /Zc:forScope /Yc"stdafx.h" /Fp"DEBUG\PRUEBA.PCH" /Fo"DEBUG\\" /Fd"DEBUG\VC120.PDB" /Gd /TP /analyze- D:\PROGRAMACION-DE-GRAFICOS-II\PRUEBA\STDAFX.CPP
^D:\PROGRAMACION-DE-GRAFICOS-II\PRUEBA\MATERIAL1.CPP
/c /I..\Engine /ZI /nologo /W3 /WX- /sdl /Od /Oy- /D WIN32 /D _DEBUG /D _UNICODE /D UNICODE /Gm /EHsc /RTC1 /MDd /GS /fp:precise /Zc:wchar_t /Zc:forScope /Yu"stdafx.h" /Fp"DEBUG\PRUEBA.PCH" /Fo"DEBUG\\" /Fd"DEBUG\VC120.PDB" /Gd /TP /analyze- D:\PROGRAMACION-DE-GRAFICOS-II\PRUEBA\MATERIAL1.CPP
^D:\PROGRAMACION-DE-GRAFICOS-II\PRUEBA\MATERIAL2.CPP
/c /I..\Engine /ZI /nologo /W3 /WX- /sdl /Od /Oy- /D WIN32 /D _DEBUG /D _UNICODE /D UNICODE /Gm /EHsc /RTC1 /MDd /GS /fp:precise /Zc:wchar_t /Zc:forScope /Yu"stdafx.h" /Fp"DEBUG\PRUEBA.PCH" /Fo"DEBUG\\" /Fd"DEBUG\VC120.PDB" /Gd /TP /analyze- D:\PROGRAMACION-DE-GRAFICOS-II\PRUEBA\MATERIAL2.CPP
^D:\PROGRAMACION-DE-GRAFICOS-II\PRUEBA\MATERIALTRANSPARENCIA.CPP
/c /I..\Engine /ZI /nologo /W3 /WX- /sdl /Od /Oy- /D WIN32 /D _DEBUG /D _UNICODE /D UNICODE /Gm /EHsc /RTC1 /MDd /GS /fp:precise /Zc:wchar_t /Zc:forScope /Yu"stdafx.h" /Fp"DEBUG\PRUEBA.PCH" /Fo"DEBUG\\" /Fd"DEBUG\VC120.PDB" /Gd /TP /analyze- D:\PROGRAMACION-DE-GRAFICOS-II\PRUEBA\MATERIALTRANSPARENCIA.CPP
^D:\PROGRAMACION-DE-GRAFICOS-II\PRUEBA\MIJUEGO.CPP
/c /I..\Engine /ZI /nologo /W3 /WX- /sdl /Od /Oy- /D WIN32 /D _DEBUG /D _UNICODE /D UNICODE /Gm /EHsc /RTC1 /MDd /GS /fp:precise /Zc:wchar_t /Zc:forScope /Yu"stdafx.h" /Fp"DEBUG\PRUEBA.PCH" /Fo"DEBUG\\" /Fd"DEBUG\VC120.PDB" /Gd /TP /analyze- D:\PROGRAMACION-DE-GRAFICOS-II\PRUEBA\MIJUEGO.CPP
^D:\PROGRAMACION-DE-GRAFICOS-II\PRUEBA\PRUEBA.CPP
/c /I..\Engine /ZI /nologo /W3 /WX- /sdl /Od /Oy- /D WIN32 /D _DEBUG /D _UNICODE /D UNICODE /Gm /EHsc /RTC1 /MDd /GS /fp:precise /Zc:wchar_t /Zc:forScope /Yu"stdafx.h" /Fp"DEBUG\PRUEBA.PCH" /Fo"DEBUG\\" /Fd"DEBUG\VC120.PDB" /Gd /TP /analyze- D:\PROGRAMACION-DE-GRAFICOS-II\PRUEBA\PRUEBA.CPP
